…
Processing: raj_15_20.parquet
  Input rows: 7882
  Rows with LGD match: 5175
  Rows with SHRUG data: 5151
  Saved: /Users/soodoku/Documents/GitHub/quota_raj/data/raj/shrug_gp_raj_15_20_block.parquet

Processing: raj_05_20.parquet
  Input rows: 5334
  Rows with LGD match: 5175
  Rows with SHRUG data: 5151
  Saved: /Users/soodoku/Documents/GitHub/quota_raj/data/raj/shrug_gp_raj_05_20_block.parquet

=== MATCH RATE BY DISTRICT (05-10 panel) ===
# A tibble: 32 × 6
   district_std_2010 total lgd_matched lgd_rate shrug_matched shrug_rate
   <chr>             <int>       <int>    <dbl>         <int>      <dbl>
 1 DUNGARPUR           219         155     70.8           149       68  
 2 JAISALMER           124          89     71.8            89       71.8
 3 BARMER              354         259     73.2           254       71.8
 4 JODHPUR             290         213     73.4           208       71.7
 5 UDAIPUR             406         308     75.9           307       75.6
 6 JAIPUR              365         278     76.2           276       75.6
 7 DAUSA               203         158     77.8           158       77.8
 8 DHAULPUR            143         113     79             113       79  
 9 SIKAR               308         251     81.5           249       80.8
10 AJMER               247         209     84.6           208       84.2
# ℹ 22 more rows
…
=== FILTERING MUNICIPALITY/URBAN ENTRIES ===
Urban/municipality entries excluded: 0
Exported: data/crosswalks/audit/03b_up_urban_excluded.csv
Election GPs after filtering: 39510
Election rows with block code: 39475of39510


WARNING: Unmatched blocks (may be urban wards):
# A tibble: 35 × 2
   district_name_eng_2010 block_name_eng_2010
   <chr>                  <chr>              
 1 Siddharth Nagar        Wardpur No 09      
 2 Siddharth Nagar        Wardpur No 10      
 3 Siddharth Nagar        Wardpur No 11      
 4 Siddharth Nagar        Vardpur No. 12     
 5 Siddharth Nagar        Wardpur No 13      
 6 Siddharth Nagar        Wardpur No 14      
 7 Siddharth Nagar        Wardpur No 15      
 8 Siddharth Nagar        Wardpur No 16      
 9 Siddharth Nagar        Vardpur No. 17     
10 Siddharth Nagar        Vardpur No. 18     
# ℹ 25 more rows
…
